{"href": "https://api.spotify.com/v1/albums/1Khdy0BbHmXrL4C2SLTKGi/tracks?offset=0&limit=1&market=BE", "items": [{"artists": [{"external_urls": {"spotify": "https://open.spotify.com/artist/4LLpKhyESsyAXpc4laK94U"}, "href": "https://api.spotify.com/v1/artists/4LLpKhyESsyAXpc4laK94U", "id": "4LLpKhyESsyAXpc4laK94U", "name": "Mac Miller", "type": "artist", "uri": "spotify:artist:4LLpKhyESsyAXpc4laK94U"}], "disc_number": 1, "duration_ms": 275283, "explicit": true, "external_urls": {"spotify": "https://open.spotify.com/track/1Svz20TVWJe0Zt9QOA87LM"}, "href": "https://api.spotify.com/v1/tracks/1Svz20TVWJe0Zt9QOA87LM", "id": "1Svz20TVWJe0Zt9QOA87LM", "is_local": false, "is_playable": true, "name": "The Star Room", "preview_url": "https://p.scdn.co/mp3-preview/22ebe7eef806e95ce5f7d80204f7d649a70f151a?cid=225b9f71fe8f4d0aaecccce3410fcf8f", "track_number": 1, "type": "track", "uri": "spotify:track:1Svz20TVWJe0Zt9QOA87LM"}], "limit": 1, "next": "https://api.spotify.com/v1/albums/1Khdy0BbHmXrL4C2SLTKGi/tracks?offset=1&limit=1&market=BE", "offset": 0, "previous": null, "total": 21}
