{"href": "https://api.spotify.com/v1/artists/4LLpKhyESsyAXpc4laK94U/albums?include_groups=album,single&offset=0&limit=1&market=BE", "items": [{"album_group": "album", "album_type": "album", "artists": [{"external_urls": {"spotify": "https://open.spotify.com/artist/4LLpKhyESsyAXpc4laK94U"}, "href": "https://api.spotify.com/v1/artists/4LLpKhyESsyAXpc4laK94U", "id": "4LLpKhyESsyAXpc4laK94U", "name": "Mac Miller", "type": "artist", "uri": "spotify:artist:4LLpKhyESsyAXpc4laK94U"}], "external_urls": {"spotify": "https://open.spotify.com/album/1Khdy0BbHmXrL4C2SLTKGi"}, "href": "https://api.spotify.com/v1/albums/1Khdy0BbHmXrL4C2SLTKGi", "id": "1Khdy0BbHmXrL4C2SLTKGi", "images": [{"height": 640, "url": "https://i.scdn.co/image/ab67616d0000b27311f25ccf53d8f559a746302b", "width": 640}, {"height": 300, "url": "https://i.scdn.co/image/ab67616d00001e0211f25ccf53d8f559a746302b", "width": 300}, {"height": 64, "url": "https://i.scdn.co/image/ab67616d0000485111f25ccf53d8f559a746302b", "width": 64}], "is_playable": true, "name": "Watching Movies with the Sound Off (10th Anniversary)", "release_date": "2023-06-23", "release_date_precision": "day", "total_tracks": 21, "type": "album", "uri": "spotify:album:1Khdy0BbHmXrL4C2SLTKGi"}], "limit": 1, "next": "https://api.spotify.com/v1/artists/4LLpKhyESsyAXpc4laK94U/albums?include_groups=album,single&offset=1&limit=1&market=BE", "offset": 0, "previous": null, "total": 45}
