{"artists": {"href": "https://api.spotify.com/v1/search?query=Mac+Miller&type=artist&market=BE&offset=0&limit=1", "items": [{"external_urls": {"spotify": "https://open.spotify.com/artist/4LLpKhyESsyAXpc4laK94U"}, "followers": {"href": null, "total": 10506306}, "genres": ["hip hop", "pittsburgh rap", "rap"], "href": "https://api.spotify.com/v1/artists/4LLpKhyESsyAXpc4laK94U", "id": "4LLpKhyESsyAXpc4laK94U", "images": [{"height": 640, "url": "https://i.scdn.co/image/ab6761610000e5ebed3b89aa602145fde71a163a", "width": 640}, {"height": 320, "url": "https://i.scdn.co/image/ab67616100005174ed3b89aa602145fde71a163a", "width": 320}, {"height": 160, "url": "https://i.scdn.co/image/ab6761610000f178ed3b89aa602145fde71a163a", "width": 160}], "name": "Mac Miller", "popularity": 80, "type": "artist", "uri": "spotify:artist:4LLpKhyESsyAXpc4laK94U"}], "limit": 1, "next": "https://api.spotify.com/v1/search?query=Mac+Miller&type=artist&market=BE&offset=1&limit=1", "offset": 0, "previous": null, "total": 800}}
